<svg width="1131" height="441" class="main-logo" viewBox="0 0 1131 441" fill="none" xmlns="http://www.w3.org/2000/svg">
    <g>
        <rect width="1131" height="441" fill="transparent" />
        <path d="M125.548 130.538L151.808 186.911L54.3548 400.278L-3.24352e-05 400.278L125.548 130.538Z" fill="#4F4F4F"
            class="main-logo-a-l" />
        <path d="M128.893 126.277L160 58.5113L315.5 400.315L253.237 400.248L128.893 126.277Z" fill="#4F4F4F"
            class="main-logo-a-r" />
        <circle cx="107" cy="354.815" r="12.5" fill="#265FD5" class="main-logo-primary" />
        <path
            d="M134.5 400.315C134.5 400.315 121.474 400.315 107 400.315C88.9079 400.315 79.5 400.315 79.5 400.315C79.5 382.089 91.8121 367.315 107 367.315C122.188 367.315 134.5 382.089 134.5 400.315Z"
            fill="#265FD5" class="main-logo-primary" />
        <circle cx="156" cy="321.815" r="12.5" fill="#265FD5" class="main-logo-primary" />
        <path
            d="M183.5 367.315C183.5 367.315 170.474 367.315 156 367.315C137.908 367.315 128.5 367.315 128.5 367.315C128.5 349.089 140.812 334.315 156 334.315C171.188 334.315 183.5 349.089 183.5 367.315Z"
            fill="#265FD5" class="main-logo-primary" />
        <circle cx="207" cy="354.815" r="12.5" fill="#265FD5" class="main-logo-primary" />
        <path
            d="M234.5 400.315C234.5 400.315 221.474 400.315 207 400.315C188.908 400.315 179.5 400.315 179.5 400.315C179.5 382.089 191.812 367.315 207 367.315C222.188 367.315 234.5 382.089 234.5 400.315Z"
            fill="#265FD5" class="main-logo-primary" />
        <rect x="361.5" y="183.465" width="38" height="217" rx="19" fill="#265FD5" class="main-logo-primary" />
        <rect x="762.5" y="125.315" width="38" height="275" rx="19" fill="#265FD5" class="main-logo-primary" />
        <rect x="890" y="182" width="38" height="218" rx="19" fill="#265FD5" class="main-logo-primary" />
        <rect x="713.5" y="212.315" width="30" height="135" rx="15" transform="rotate(-90 713.5 212.315)" fill="#265FD5"
            class="main-logo-primary" />
        <g filter="url(#filter0_d)">
            <path
                d="M509.5 201.315C509.5 190.821 518.007 182.315 528.5 182.315C538.993 182.315 547.5 190.821 547.5 201.315V332.315H509.5V201.315Z"
                fill="#265FD5" class="main-logo-primary" />
        </g>
        <path
            d="M634.5 201.315C634.5 190.821 643.007 182.315 653.5 182.315C663.993 182.315 672.5 190.821 672.5 201.315V332.315H634.5V201.315Z"
            fill="#265FD5" class="main-logo-primary" />
        <path
            d="M672.5 329.315C672.5 338.376 670.392 347.349 666.296 355.72C662.2 364.091 656.197 371.698 648.629 378.105C641.061 384.512 632.077 389.595 622.189 393.063C612.301 396.53 601.703 398.315 591 398.315C580.297 398.315 569.699 396.53 559.811 393.062C549.923 389.595 540.939 384.512 533.371 378.105C525.803 371.698 519.8 364.091 515.704 355.72C511.608 347.349 509.5 338.376 509.5 329.315L547.536 329.315C547.536 334.147 548.66 338.932 550.845 343.397C553.029 347.861 556.23 351.918 560.266 355.335C564.302 358.752 569.094 361.462 574.367 363.311C579.64 365.161 585.292 366.113 591 366.113C596.708 366.113 602.36 365.161 607.633 363.311C612.906 361.462 617.698 358.752 621.734 355.335C625.77 351.918 628.971 347.861 631.155 343.397C633.34 338.932 634.464 334.147 634.464 329.315H672.5Z"
            fill="#265FD5" class="main-logo-primary" />
        <circle cx="908.5" cy="144.315" r="19" fill="#265FD5" class="main-logo-primary" />
        <path
            d="M428.791 203.546C447.143 186.071 466.967 186.254 476 193.5C483.647 201.096 486.29 213.169 472.473 229.957C459.427 245.807 408.775 241.768 398.82 305.989C398.136 310.404 392.676 312.057 390.555 308.124C368.921 268.005 411.872 219.657 428.791 203.546Z"
            fill="#265FD5" class="main-logo-primary" class="main-logo-primary" />
        <path
            d="M954.993 155.315C989.891 173.68 1016.07 205.157 1027.76 242.82C1039.45 280.483 1035.7 321.248 1017.33 356.147C998.967 391.046 967.49 417.219 929.827 428.91C892.164 440.601 851.399 436.852 816.5 418.486C846.164 434.097 894.486 422.437 926.5 412.5C959.514 398.563 981.984 375.424 997.594 345.76C1013.2 316.096 1015.62 278.311 1006.45 246.603C998.045 215.201 984.657 170.925 954.993 155.315Z"
            fill="#FF9A32" class="main-logo-primary" />
        <path
            d="M685.936 185.93C697.235 127.854 731.142 76.6445 780.198 43.568C829.254 10.4916 889.441 -1.74271 947.517 9.5566C1005.59 20.8559 1056.8 54.7632 1089.88 103.819C1122.96 152.875 1135.19 213.062 1123.89 271.138C1133.5 221.773 1098.03 165.133 1069.92 123.435C1035.81 81.9518 990.492 52.0077 941.127 42.4033C891.762 32.7988 839.442 39.0592 797.853 65.9396C756.371 91.5853 695.54 136.565 685.936 185.93Z"
            fill="#31353E" class="main-logo-primary" />
        <path
            d="M838.412 99.8606C878.97 78.3005 926.432 73.7352 970.356 87.1691C1014.28 100.603 1051.07 130.935 1072.63 171.494C1094.19 212.052 1098.75 259.514 1085.32 303.438C1071.89 347.363 1041.55 384.152 1001 405.712C1035.47 387.386 1049.51 333.476 1062.92 296.141C1069.35 258.944 1068.02 218.162 1049.69 183.688C1031.36 149.213 1001.42 121.199 964.885 109.243C929.144 96.7475 872.886 81.5345 838.412 99.8606Z"
            fill="#D71A21"  />
    </g>
    <defs>
        <filter id="filter0_d" x="505.5" y="182.315" width="46" height="158" filterUnits="userSpaceOnUse"
            color-interpolation-filters="sRGB">
            <feFlood flood-opacity="0" result="BackgroundImageFix" class="main-logo-primary" />
            <feColorMatrix in="SourceAlpha" type="matrix" values="0 0 0 0 0 0 0 0 0 0 0 0 0 0 0 0 0 0 127 0"
                class="main-logo-primary" />
            <feOffset dy="4" class="main-logo-primary" />
            <feGaussianBlur stdDeviation="2" class="main-logo-primary" />
            <feColorMatrix type="matrix" values="0 0 0 0 0 0 0 0 0 0 0 0 0 0 0 0 0 0 0.25 0"
                class="main-logo-primary" />
            <feBlend mode="normal" in2="BackgroundImageFix" result="effect1_dropShadow" class="main-logo-primary" />
            <feBlend mode="normal" in="SourceGraphic" in2="effect1_dropShadow" result="shape"
                class="main-logo-primary" />
        </filter>
        <clipPath id="clip0">
            <rect width="1131" height="441" fill="white" class="main-logo-primary" />
        </clipPath>
    </defs>
</svg>